Working with data
…
Sorting data with the arrange command

Defining and updating data with the mutate command

These commands, and other commands from the dplyr package are summarized in a cheat sheet. We will show screengrabs from the cheat sheet in this tutorial to explain some concepts. The entire cheat sheet is available here

We will use data downloaded and processed from the Open Data Portal of the municipality of Zurich. This data set contains pedestrian and bicycle counts between 2018 and 2021. The quarterly hour counts have been summed to hourly counts. I added a description of the count location to the data set.

The data set is shown below. It contains the following records:

bezeichnung: Count location

fk_standort: Identifi

## # A tibble: 1,065,912 x 12
##    bezeichnung FK_STANDORT FK_ZAEHLER  year month   day  hour total_fuss
##    <chr>             <dbl> <chr>      <dbl> <dbl> <dbl> <dbl>      <dbl>
##  1 Altstetter…           2 U15G30638…  2018     1     1     0         13
##  2 Altstetter…           2 U15G30638…  2018     1     1     1         21
##  3 Altstetter…           2 U15G30638…  2018     1     1     2          8
##  4 Altstetter…           2 U15G30638…  2018     1     1     3          7
##  5 Altstetter…           2 U15G30638…  2018     1     1     4          7
##  6 Altstetter…           2 U15G30638…  2018     1     1     5         10
##  7 Altstetter…           2 U15G30638…  2018     1     1     6         20
##  8 Altstetter…           2 U15G30638…  2018     1     1     7          9
##  9 Altstetter…           2 U15G30638…  2018     1     1     8         12
## 10 Altstetter…           2 U15G30638…  2018     1     1     9         38
## # … with 1,065,902 more rows, and 4 more variables: total_velo <dbl>,
## #   datum <dttm>, korrekturfaktor <dbl>, geometry <chr>
…
